ApplicationMgr       INFO Application Manager Configured successfully
AthenaEventLoopMgr   INFO Initializing AthenaEventLoopMgr
EventInfoCnvAlg      INFO Initializing EventInfoCnvAlg
EventI...foCnvTool   INFO Beam spot information not available
EventI...foCnvTool   INFO Will not fill beam spot information into xAOD::EventInfo
xAODTestAlg       WARNING Implicit circular data dependency detected for id  ( 'SG::AuxElement' , 'StoreGateSvc+cinfo2' ) 
EventSelector        INFO  Enter McEventSelector Initialization 
AthenaEventLoopMgr   INFO Setup EventSelector service EventSelector
ApplicationMgr       INFO Application Manager Initialized successfully
ApplicationMgr       INFO Application Manager Started successfully
EventP...stencySvc   INFO Added successfully Conversion service:McCnvSvc
AthenaEventLoopMgr   INFO   ===>>>  start of run 0    <<<===
AthenaEventLoopMgr   INFO   ===>>>  start processing event #1, run #0 0 events processed so far  <<<===
xAODTe...adSymlink   INFO C (as AuxElement): 2000; S 100
xAODTe...mlinkTool   INFO From tool: C (as AuxElement): 2000; S 100
AthenaEventLoopMgr   INFO   ===>>>  done processing event #1, run #0 1 events processed so far  <<<===
AthenaEventLoopMgr   INFO   ===>>>  start processing event #2, run #0 1 events processed so far  <<<===
xAODTe...adSymlink   INFO C (as AuxElement): 3000; S 200
xAODTe...mlinkTool   INFO From tool: C (as AuxElement): 3000; S 200
AthenaEventLoopMgr   INFO   ===>>>  done processing event #2, run #0 2 events processed so far  <<<===
AthenaEventLoopMgr   INFO   ===>>>  start processing event #3, run #0 2 events processed so far  <<<===
xAODTe...adSymlink   INFO C (as AuxElement): 4000; S 300
xAODTe...mlinkTool   INFO From tool: C (as AuxElement): 4000; S 300
AthenaEventLoopMgr   INFO   ===>>>  done processing event #3, run #0 3 events processed so far  <<<===
AthenaEventLoopMgr   INFO   ===>>>  start processing event #4, run #0 3 events processed so far  <<<===
xAODTe...adSymlink   INFO C (as AuxElement): 5000; S 400
xAODTe...mlinkTool   INFO From tool: C (as AuxElement): 5000; S 400
AthenaEventLoopMgr   INFO   ===>>>  done processing event #4, run #0 4 events processed so far  <<<===
AthenaEventLoopMgr   INFO   ===>>>  start processing event #5, run #0 4 events processed so far  <<<===
xAODTe...adSymlink   INFO C (as AuxElement): 6000; S 500
xAODTe...mlinkTool   INFO From tool: C (as AuxElement): 6000; S 500
AthenaEventLoopMgr   INFO   ===>>>  done processing event #5, run #0 5 events processed so far  <<<===
AthenaEventLoopMgr   INFO   ===>>>  start processing event #6, run #0 5 events processed so far  <<<===
xAODTe...adSymlink   INFO C (as AuxElement): 7000; S 600
xAODTe...mlinkTool   INFO From tool: C (as AuxElement): 7000; S 600
AthenaEventLoopMgr   INFO   ===>>>  done processing event #6, run #0 6 events processed so far  <<<===
AthenaEventLoopMgr   INFO   ===>>>  start processing event #7, run #0 6 events processed so far  <<<===
xAODTe...adSymlink   INFO C (as AuxElement): 8000; S 700
xAODTe...mlinkTool   INFO From tool: C (as AuxElement): 8000; S 700
AthenaEventLoopMgr   INFO   ===>>>  done processing event #7, run #0 7 events processed so far  <<<===
AthenaEventLoopMgr   INFO   ===>>>  start processing event #8, run #0 7 events processed so far  <<<===
xAODTe...adSymlink   INFO C (as AuxElement): 9000; S 800
xAODTe...mlinkTool   INFO From tool: C (as AuxElement): 9000; S 800
AthenaEventLoopMgr   INFO   ===>>>  done processing event #8, run #0 8 events processed so far  <<<===
AthenaEventLoopMgr   INFO   ===>>>  start processing event #9, run #0 8 events processed so far  <<<===
xAODTe...adSymlink   INFO C (as AuxElement): 10000; S 900
xAODTe...mlinkTool   INFO From tool: C (as AuxElement): 10000; S 900
AthenaEventLoopMgr   INFO   ===>>>  done processing event #9, run #0 9 events processed so far  <<<===
AthenaEventLoopMgr   INFO   ===>>>  start processing event #10, run #0 9 events processed so far  <<<===
xAODTe...adSymlink   INFO C (as AuxElement): 11000; S 1000
xAODTe...mlinkTool   INFO From tool: C (as AuxElement): 11000; S 1000
AthenaEventLoopMgr   INFO   ===>>>  done processing event #10, run #0 10 events processed so far  <<<===
AthenaEventLoopMgr   INFO   ===>>>  start processing event #11, run #0 10 events processed so far  <<<===
xAODTe...adSymlink   INFO C (as AuxElement): 12000; S 1100
xAODTe...mlinkTool   INFO From tool: C (as AuxElement): 12000; S 1100
AthenaEventLoopMgr   INFO   ===>>>  done processing event #11, run #0 11 events processed so far  <<<===
AthenaEventLoopMgr   INFO   ===>>>  start processing event #12, run #0 11 events processed so far  <<<===
xAODTe...adSymlink   INFO C (as AuxElement): 13000; S 1200
xAODTe...mlinkTool   INFO From tool: C (as AuxElement): 13000; S 1200
AthenaEventLoopMgr   INFO   ===>>>  done processing event #12, run #0 12 events processed so far  <<<===
AthenaEventLoopMgr   INFO   ===>>>  start processing event #13, run #0 12 events processed so far  <<<===
xAODTe...adSymlink   INFO C (as AuxElement): 14000; S 1300
xAODTe...mlinkTool   INFO From tool: C (as AuxElement): 14000; S 1300
AthenaEventLoopMgr   INFO   ===>>>  done processing event #13, run #0 13 events processed so far  <<<===
AthenaEventLoopMgr   INFO   ===>>>  start processing event #14, run #0 13 events processed so far  <<<===
xAODTe...adSymlink   INFO C (as AuxElement): 15000; S 1400
xAODTe...mlinkTool   INFO From tool: C (as AuxElement): 15000; S 1400
AthenaEventLoopMgr   INFO   ===>>>  done processing event #14, run #0 14 events processed so far  <<<===
AthenaEventLoopMgr   INFO   ===>>>  start processing event #15, run #0 14 events processed so far  <<<===
xAODTe...adSymlink   INFO C (as AuxElement): 16000; S 1500
xAODTe...mlinkTool   INFO From tool: C (as AuxElement): 16000; S 1500
AthenaEventLoopMgr   INFO   ===>>>  done processing event #15, run #0 15 events processed so far  <<<===
AthenaEventLoopMgr   INFO   ===>>>  start processing event #16, run #0 15 events processed so far  <<<===
xAODTe...adSymlink   INFO C (as AuxElement): 17000; S 1600
xAODTe...mlinkTool   INFO From tool: C (as AuxElement): 17000; S 1600
AthenaEventLoopMgr   INFO   ===>>>  done processing event #16, run #0 16 events processed so far  <<<===
AthenaEventLoopMgr   INFO   ===>>>  start processing event #17, run #0 16 events processed so far  <<<===
xAODTe...adSymlink   INFO C (as AuxElement): 18000; S 1700
xAODTe...mlinkTool   INFO From tool: C (as AuxElement): 18000; S 1700
AthenaEventLoopMgr   INFO   ===>>>  done processing event #17, run #0 17 events processed so far  <<<===
AthenaEventLoopMgr   INFO   ===>>>  start processing event #18, run #0 17 events processed so far  <<<===
xAODTe...adSymlink   INFO C (as AuxElement): 19000; S 1800
xAODTe...mlinkTool   INFO From tool: C (as AuxElement): 19000; S 1800
AthenaEventLoopMgr   INFO   ===>>>  done processing event #18, run #0 18 events processed so far  <<<===
AthenaEventLoopMgr   INFO   ===>>>  start processing event #19, run #0 18 events processed so far  <<<===
xAODTe...adSymlink   INFO C (as AuxElement): 20000; S 1900
xAODTe...mlinkTool   INFO From tool: C (as AuxElement): 20000; S 1900
AthenaEventLoopMgr   INFO   ===>>>  done processing event #19, run #0 19 events processed so far  <<<===
AthenaEventLoopMgr   INFO   ===>>>  start processing event #20, run #0 19 events processed so far  <<<===
xAODTe...adSymlink   INFO C (as AuxElement): 21000; S 2000
xAODTe...mlinkTool   INFO From tool: C (as AuxElement): 21000; S 2000
AthenaEventLoopMgr   INFO   ===>>>  done processing event #20, run #0 20 events processed so far  <<<===
ApplicationMgr       INFO Application Manager Stopped successfully
ToolSvc              INFO Removing all tools created by ToolSvc
ApplicationMgr       INFO Application Manager Finalized successfully
ApplicationMgr       INFO Application Manager Terminated successfully
Py:Athena            INFO leaving with code 0: "successful run"
