ActsPixelClusterizationAlg                                        INFO Clusterization statistics
|----------|------------|
| RDOs     |    3423993 |
| Clusters |    1165578 |
|----------|------------|
ActsStripClusterizationAlg                                        INFO Clusterization statistics
|----------|------------|
| RDOs     |    1345365 |
| Clusters |    1081478 |
|----------|------------|
ActsPixelSpacePointFormationAlg                                   INFO Space Point Formation statistics
|--------------|------------|
| Clusters     |    1165578 |
| Space Points |    1165578 |
|--------------|------------|
ActsStripSpacePointFormationAlg                                   INFO Space Point Formation statistics
|----------------------|------------|
| Clusters             |    1081478 |
| Space Points         |     325456 |
| Overlap Space Points |      94491 |
|----------------------|------------|
ActsPixelSeedingAlg                                               INFO Seed statistics
|---------------------|------------|
| Spacepoints         |    1165578 |
| Seeds               |     123542 |
| No track parameters |          0 |
|---------------------|------------|
ActsStripSeedingAlg                                               INFO Seed statistics
|---------------------|------------|
| Spacepoints         |     419947 |
| Seeds               |      24791 |
| No track parameters |          0 |
|---------------------|------------|
ActsTrackFindingAlg                                               INFO statistics
|-----------------------------------|------------|------------|------------|
|                           All eta | PPP        | SSS        | ALL        |
|-----------------------------------|------------|------------|------------|
| Input seeds                       |     123542 |      24791 |     148333 |
| No track parameters               |          0 |          0 |          0 |
| Used   seeds                      |      78109 |      15624 |      93733 |
| Cannot find track                 |      63304 |      11860 |      75164 |
| Duplicate seeds                   |      45433 |       9167 |      54600 |
| CKF tracks                        |      14805 |       3764 |      18569 |
| Rejected refined parameters       |          0 |          0 |          0 |
| selected tracks                   |      13383 |        831 |      14214 |
| Stopped tracks reaching max holes |      60890 |      11366 |      72256 |
| Seeds with more than one branch   |          0 |          0 |          0 |
| Tracks failing second CKF         |          0 |          0 |          0 |
| Stopped tracks below pT cut       |       2414 |        494 |       2908 |
| Stopped tracks above max eta      |          0 |          0 |          0 |
|-----------------------------------|------------|------------|------------|
ActsTrackFindingAlg                                               INFO Ratios
|------------------------------------------|------------|------------|------------|
|                                          | PPP        | SSS        | ALL        |
|------------------------------------------|------------|------------|------------|
| failed / seeds                           |   0.512409 |   0.478399 |   0.506725 |
| duplication / seeds                      |   0.367753 |   0.369771 |   0.368091 |
| Rejected refined params / seeds          |          0 |          0 |          0 |
| selected / CKF tracks                    |   0.903951 |   0.220776 |   0.765469 |
| selected tracks / used seeds             |   0.171337 |  0.0531874 |   0.151643 |
| branched tracks / used seeds             |          0 |          0 |          0 |
| no 2nd CKF / CKF tracks                  |          0 |          0 |          0 |
|------------------------------------------|------------|------------|------------|
| selected / CKF tracks           0.0- 0.5 |   0.890205 |   0.124352 |   0.711259 |
|                                 0.5- 1.0 |   0.913315 |   0.256262 |   0.739419 |
|                                 1.0- 1.5 |   0.885971 |   0.216418 |   0.704992 |
|                                 1.5- 2.0 |    0.79267 |   0.240154 |   0.563561 |
|                                 2.0- 2.5 |    0.94335 |   0.216926 |    0.69915 |
|                                 2.5- 3.0 |   0.882987 |          0 |   0.882987 |
|                                 3.0- 3.5 |   0.942103 |          0 |   0.942103 |
|                                 3.5-+inf |   0.960328 |          0 |   0.960328 |
|------------------------------------------|------------|------------|------------|
ActsPrdAssociationAlg                                             INFO Prd Map statistics
|-----------------------|------------|
| N. Tracks             |       9546 |
| N. Pixel Measurements |     102077 |
| N. Strip Measurements |      40053 |
| N. Hgtd Measurements  |          0 |
|-----------------------|------------|
ActsLargeRadiusPixelClusterPreparationAlg                         INFO Data Prep statistics
|---------|------------|
| Inputs  |    1165578 |
| Outputs |    1063573 |
|---------|------------|
ActsLargeRadiusStripClusterPreparationAlg                         INFO Data Prep statistics
|---------|------------|
| Inputs  |    1081478 |
| Outputs |    1041460 |
|---------|------------|
ActsLargeRadiusStripSpacePointPreparationAlg                      INFO Data Prep statistics
|---------|------------|
| Inputs  |     325456 |
| Outputs |     303582 |
|---------|------------|
ActsLargeRadiusStripOv...pSpacePointPreparationAlg                INFO Data Prep statistics
|---------|------------|
| Inputs  |      94491 |
| Outputs |      88169 |
|---------|------------|
ActsLargeRadiusStripSeedingAlg                                    INFO Seed statistics
|---------------------|------------|
| Spacepoints         |     391751 |
| Seeds               |       9682 |
| No track parameters |          0 |
|---------------------|------------|
ActsLargeRadiusTrackFindingAlg                                    INFO statistics
|-----------------------------------|------------|------------|
|                           All eta | SSS        | ALL        |
|-----------------------------------|------------|------------|
| Input seeds                       |       9682 |       9682 |
| No track parameters               |          0 |          0 |
| Used   seeds                      |       9495 |       9495 |
| Cannot find track                 |       8549 |       8549 |
| Duplicate seeds                   |        187 |        187 |
| CKF tracks                        |        946 |        946 |
| Rejected refined parameters       |          0 |          0 |
| selected tracks                   |        113 |        113 |
| Stopped tracks reaching max holes |       6663 |       6663 |
| Seeds with more than one branch   |          0 |          0 |
| Tracks failing second CKF         |          0 |          0 |
| Stopped tracks below pT cut       |       1886 |       1886 |
| Stopped tracks above max eta      |          0 |          0 |
|-----------------------------------|------------|------------|
ActsLargeRadiusTrackFindingAlg                                    INFO Ratios
|------------------------------------------|------------|------------|
|                                          | SSS        | ALL        |
|------------------------------------------|------------|------------|
| failed / seeds                           |   0.882979 |   0.882979 |
| duplication / seeds                      |  0.0193142 |  0.0193142 |
| Rejected refined params / seeds          |          0 |          0 |
| selected / CKF tracks                    |    0.11945 |    0.11945 |
| selected tracks / used seeds             |   0.011901 |   0.011901 |
| branched tracks / used seeds             |          0 |          0 |
| no 2nd CKF / CKF tracks                  |          0 |          0 |
|------------------------------------------|------------|------------|
| selected / CKF tracks           0.0- 0.5 |   0.169014 |   0.169014 |
|                                 0.5- 1.0 |   0.214286 |   0.214286 |
|                                 1.0- 1.5 |   0.228261 |   0.228261 |
|                                 1.5- 2.0 |   0.102941 |   0.102941 |
|                                 2.0- 2.5 |  0.0687285 |  0.0687285 |
|                                 2.5- 3.0 |          0 |          0 |
|                                 3.0- 3.5 |          0 |          0 |
|                                 3.5-+inf |          0 |          0 |
|------------------------------------------|------------|------------|
ActsLargeRadiusPrdAssociationAlg                                  INFO Prd Map statistics
|-----------------------|------------|
| N. Tracks             |         85 |
| N. Pixel Measurements |        486 |
| N. Strip Measurements |        799 |
| N. Hgtd Measurements  |          0 |
|-----------------------|------------|
ActsConversionPixelClusterPreparationAlg                          INFO Data Prep statistics
|---------|------------|
| Inputs  |    1165578 |
| Outputs |      27114 |
|---------|------------|
ActsConversionStripClusterPreparationAlg                          INFO Data Prep statistics
|---------|------------|
| Inputs  |    1081478 |
| Outputs |      15516 |
|---------|------------|
ActsConversionStripSpacePointPreparationAlg                       INFO Data Prep statistics
|---------|------------|
| Inputs  |     325456 |
| Outputs |       4502 |
|---------|------------|
ActsConversionStripSeedingAlg                                     INFO Seed statistics
|---------------------|------------|
| Spacepoints         |       4502 |
| Seeds               |         71 |
| No track parameters |          0 |
|---------------------|------------|
ActsConversionTrackFindingAlg                                     INFO statistics
|-----------------------------------|------------|------------|
|                           All eta | SSS        | ALL        |
|-----------------------------------|------------|------------|
| Input seeds                       |         71 |         71 |
| No track parameters               |          0 |          0 |
| Used   seeds                      |         71 |         71 |
| Cannot find track                 |         54 |         54 |
| Duplicate seeds                   |          0 |          0 |
| CKF tracks                        |         17 |         17 |
| Rejected refined parameters       |          0 |          0 |
| selected tracks                   |          0 |          0 |
| Stopped tracks reaching max holes |         46 |         46 |
| Seeds with more than one branch   |          0 |          0 |
| Tracks failing second CKF         |          0 |          0 |
| Stopped tracks below pT cut       |          8 |          8 |
| Stopped tracks above max eta      |          0 |          0 |
|-----------------------------------|------------|------------|
ActsConversionTrackFindingAlg                                     INFO Ratios
|------------------------------------------|------------|------------|
|                                          | SSS        | ALL        |
|------------------------------------------|------------|------------|
| failed / seeds                           |   0.760563 |   0.760563 |
| duplication / seeds                      |          0 |          0 |
| Rejected refined params / seeds          |          0 |          0 |
| selected / CKF tracks                    |          0 |          0 |
| selected tracks / used seeds             |          0 |          0 |
| branched tracks / used seeds             |          0 |          0 |
| no 2nd CKF / CKF tracks                  |          0 |          0 |
|------------------------------------------|------------|------------|
| selected / CKF tracks           0.0- 0.5 |          0 |          0 |
|                                 0.5- 1.0 |          0 |          0 |
|                                 1.0- 1.5 |          0 |          0 |
|                                 1.5- 2.0 |          0 |          0 |
|                                 2.0- 2.5 |          0 |          0 |
|                                 2.5- 3.0 |          0 |          0 |
|                                 3.0- 3.5 |          0 |          0 |
|                                 3.5-+inf |          0 |          0 |
|------------------------------------------|------------|------------|
ActsConversionPrdAssociationAlg                                   INFO Prd Map statistics
|-----------------------|------------|
| N. Tracks             |          0 |
| N. Pixel Measurements |          0 |
| N. Strip Measurements |          0 |
| N. Hgtd Measurements  |          0 |
|-----------------------|------------|
ActsLowPtPixelClusterPreparationAlg                               INFO Data Prep statistics
|---------|------------|
| Inputs  |    1165578 |
| Outputs |    1063088 |
|---------|------------|
ActsLowPtStripClusterPreparationAlg                               INFO Data Prep statistics
|---------|------------|
| Inputs  |    1081478 |
| Outputs |    1040661 |
|---------|------------|
ActsLowPtPixelSpacePointPreparationAlg                            INFO Data Prep statistics
|---------|------------|
| Inputs  |    1165578 |
| Outputs |    1063088 |
|---------|------------|
ActsLowPtStripSpacePointPreparationAlg                            INFO Data Prep statistics
|---------|------------|
| Inputs  |     325456 |
| Outputs |     303159 |
|---------|------------|
ActsLowPtStripOverlapSpacePointPreparationAlg                     INFO Data Prep statistics
|---------|------------|
| Inputs  |      94491 |
| Outputs |      88020 |
|---------|------------|
ActsLowPtPixelSeedingAlg                                          INFO Seed statistics
|---------------------|------------|
| Spacepoints         |    1063088 |
| Seeds               |      46854 |
| No track parameters |          0 |
|---------------------|------------|
ActsLowPtStripSeedingAlg                                          INFO Seed statistics
|---------------------|------------|
| Spacepoints         |     391179 |
| Seeds               |       9214 |
| No track parameters |          0 |
|---------------------|------------|
ActsLowPtTrackFindingAlg                                          INFO statistics
|-----------------------------------|------------|------------|------------|
|                           All eta | PPP        | SSS        | ALL        |
|-----------------------------------|------------|------------|------------|
| Input seeds                       |      46854 |       9214 |      56068 |
| No track parameters               |          0 |          0 |          0 |
| Used   seeds                      |      46045 |       8888 |      54933 |
| Cannot find track                 |      44909 |       7142 |      52051 |
| Duplicate seeds                   |        809 |        326 |       1135 |
| CKF tracks                        |       1136 |       1746 |       2882 |
| Rejected refined parameters       |          0 |          0 |          0 |
| selected tracks                   |        620 |         48 |        668 |
| Stopped tracks reaching max holes |      44467 |       7100 |      51567 |
| Seeds with more than one branch   |          0 |          0 |          0 |
| Tracks failing second CKF         |          0 |          1 |          1 |
| Stopped tracks below pT cut       |        442 |         42 |        484 |
| Stopped tracks above max eta      |          0 |          0 |          0 |
|-----------------------------------|------------|------------|------------|
ActsLowPtTrackFindingAlg                                          INFO Ratios
|------------------------------------------|------------|------------|------------|
|                                          | PPP        | SSS        | ALL        |
|------------------------------------------|------------|------------|------------|
| failed / seeds                           |   0.958488 |   0.775125 |   0.928355 |
| duplication / seeds                      |  0.0172664 |  0.0353809 |  0.0202433 |
| Rejected refined params / seeds          |          0 |          0 |          0 |
| selected / CKF tracks                    |   0.545775 |  0.0274914 |   0.231783 |
| selected tracks / used seeds             |  0.0134651 | 0.00540054 |  0.0121603 |
| branched tracks / used seeds             |          0 |          0 |          0 |
| no 2nd CKF / CKF tracks                  |          0 | 0.000572738 | 0.000346981 |
|------------------------------------------|------------|------------|------------|
| selected / CKF tracks           0.0- 0.5 |   0.833333 |          0 |       0.36 |
|                                 0.5- 1.0 |   0.965909 |  0.0215827 |   0.387665 |
|                                 1.0- 1.5 |   0.948905 |  0.0701754 |   0.461039 |
|                                 1.5- 2.0 |   0.917431 |   0.044733 |    0.32451 |
|                                 2.0- 2.5 |  0.0657895 | 0.00332779 |  0.0103397 |
|                                 2.5- 3.0 |  0.0131004 |          0 |  0.0131004 |
|                                 3.0- 3.5 |  0.0210526 |          0 |  0.0210526 |
|                                 3.5-+inf |  0.0657895 |          0 |  0.0657895 |
|------------------------------------------|------------|------------|------------|
ActsLowPtPrdAssociationAlg                                        INFO Prd Map statistics
|-----------------------|------------|
| N. Tracks             |        508 |
| N. Pixel Measurements |       3838 |
| N. Strip Measurements |       4211 |
| N. Hgtd Measurements  |          0 |
|-----------------------|------------|
